…
I decided to first check out the frequency of words in my data.

``` r
combined_word <- tidy_mail %>%
  unite(col = combined_text, title, preview, sep = ". ") %>% 
  #join title & preview columns 
  unnest_tokens(output = word, input = combined_text) %>%
  anti_join(stop_words) 

# word frequency
combined_word %>%
  count(word, sort = TRUE)
```

    ## # A tibble: 1,200 x 2
    ##    word          n
    ##    <chr>     <int>
    ##  1 meghan       87
    ##  2 harry        55
    ##  3 interview    55
    ##  4 oprah        49
    ##  5 prince       48
    ##  6 royal        32
    ##  7 markle       29
    ##  8 meghan's     25
    ##  9 family       23
    ## 10 duchess      22
    ## # … with 1,190 more rows
…
